module alerts-triage

go 1.19

require gopkg.in/yaml.v2 v2.4.0 // indirect

require (
	github.com/dustin/go-humanize v1.0.1
	github.com/go-chi/chi/v5 v5.0.10
	github.com/go-openapi/strfmt v0.21.7
	github.com/prometheus/alertmanager v0.26.0
	github.com/prometheus/common v0.44.0
	gopkg.in/yaml.v3 v3.0.1
)

require (
	github.com/alecthomas/kingpin/v2 v2.3.2 // indirect
	github.com/alecthomas/units v0.0.0-20211218093645-b94a6e3cc137 // indirect
	github.com/armon/go-metrics v0.3.10 // indirect
	github.com/asaskevich/govalidator v0.0.0-20230301143203-a9d515a09cc2 // indirect
	github.com/aws/aws-sdk-go v1.44.317 // indirect
	github.com/benbjohnson/clock v1.3.5 // indirect
	github.com/beorn7/perks v1.0.1 // indirect
	github.com/cenkalti/backoff/v4 v4.2.1 // indirect
	github.com/cespare/xxhash/v2 v2.2.0 // indirect
	github.com/coreos/go-systemd/v22 v22.5.0 // indirect
	github.com/go-kit/log v0.2.1 // indirect
	github.com/go-logfmt/logfmt v0.5.1 // indirect
	github.com/go-logr/logr v1.2.3 // indirect
	github.com/go-logr/stdr v1.2.2 // indirect
	github.com/go-openapi/analysis v0.21.4 // indirect
	github.com/go-openapi/errors v0.20.4 // indirect
	github.com/go-openapi/jsonpointer v0.19.5 // indirect
	github.com/go-openapi/jsonreference v0.20.0 // indirect
	github.com/go-openapi/loads v0.21.2 // indirect
	github.com/go-openapi/runtime v0.26.0 // indirect
	github.com/go-openapi/spec v0.20.8 // indirect
	github.com/go-openapi/swag v0.22.3 // indirect
	github.com/go-openapi/validate v0.22.1 // indirect
	github.com/gofrs/uuid v4.4.0+incompatible // indirect
	github.com/gogo/protobuf v1.3.2 // indirect
	github.com/golang/protobuf v1.5.3 // indirect
	github.com/google/btree v1.0.0 // indirect
	github.com/hashicorp/errwrap v1.0.0 // indirect
	github.com/hashicorp/go-immutable-radix v1.3.1 // indirect
	github.com/hashicorp/go-msgpack v0.5.3 // indirect
	github.com/hashicorp/go-multierror v1.1.0 // indirect
	github.com/hashicorp/go-sockaddr v1.0.2 // indirect
	github.com/hashicorp/golang-lru v0.5.4 // indirect
	github.com/hashicorp/golang-lru/v2 v2.0.2 // indirect
	github.com/hashicorp/memberlist v0.5.0 // indirect
	github.com/jmespath/go-jmespath v0.4.0 // indirect
	github.com/josharian/intern v1.0.0 // indirect
	github.com/jpillora/backoff v1.0.0 // indirect
	github.com/mailru/easyjson v0.7.7 // indirect
	github.com/matttproud/golang_protobuf_extensions v1.0.4 // indirect
	github.com/miekg/dns v1.1.41 // indirect
	github.com/mitchellh/mapstructure v1.5.0 // indirect
	github.com/mwitkow/go-conntrack v0.0.0-20190716064945-2f068394615f // indirect
	github.com/oklog/run v1.1.0 // indirect
	github.com/oklog/ulid v1.3.1 // indirect
	github.com/opentracing/opentracing-go v1.2.0 // indirect
	github.com/pkg/errors v0.9.1 // indirect
	github.com/prometheus/client_golang v1.15.1 // indirect
	github.com/prometheus/client_model v0.4.0 // indirect
	github.com/prometheus/common/sigv4 v0.1.0 // indirect
	github.com/prometheus/exporter-toolkit v0.10.0 // indirect
	github.com/prometheus/procfs v0.9.0 // indirect
	github.com/sean-/seed v0.0.0-20170313163322-e2103e2c3529 // indirect
	github.com/shurcooL/httpfs v0.0.0-20190707220628-8d4bc4ba7749 // indirect
	github.com/shurcooL/vfsgen v0.0.0-20200824052919-0d455de96546 // indirect
	github.com/xhit/go-str2duration/v2 v2.1.0 // indirect
	github.com/xlab/treeprint v1.1.0 // indirect
	go.mongodb.org/mongo-driver v1.11.3 // indirect
	go.opentelemetry.io/otel v1.14.0 // indirect
	go.opentelemetry.io/otel/trace v1.14.0 // indirect
	golang.org/x/crypto v0.8.0 // indirect
	golang.org/x/mod v0.9.0 // indirect
	golang.org/x/net v0.10.0 // indirect
	golang.org/x/oauth2 v0.8.0 // indirect
	golang.org/x/sync v0.1.0 // indirect
	golang.org/x/sys v0.8.0 // indirect
	golang.org/x/text v0.9.0 // indirect
	google.golang.org/appengine v1.6.7 // indirect
	google.golang.org/protobuf v1.30.0 // indirect
)
